{
  "base_url": "/user/mouradterzi95-mt15-2021-76zgiiyg/",
  "hostname": "0.0.0.0",
  "notebook_dir": "/home/jovyan",
  "password": false,
  "pid": 25,
  "port": 8888,
  "secure": false,
  "sock": "",
  "token": "GP5KU2zGQcyiJaD0H2Ky0w",
  "url": "http://0.0.0.0:8888/user/mouradterzi95-mt15-2021-76zgiiyg/"
}